…
city_results
```

    ## # A tibble: 47 × 4
    ## # Groups:   city_state [47]
    ##    city_state      estimate conf.low conf.high
    ##    <chr>              <dbl>    <dbl>     <dbl>
    ##  1 Albuquerque, NM    1.77     0.825     3.76 
    ##  2 Atlanta, GA        1.00     0.680     1.46 
    ##  3 Baltimore, MD      0.426    0.324     0.558
    ##  4 Baton Rouge, LA    0.381    0.204     0.684
    ##  5 Birmingham, AL     0.870    0.571     1.31 
    ##  6 Boston, MA         0.667    0.351     1.26 
    ##  7 Buffalo, NY        0.521    0.288     0.936
    ##  8 Charlotte, NC      0.884    0.551     1.39 
    ##  9 Chicago, IL        0.410    0.336     0.501
    ## 10 Cincinnati, OH     0.400    0.231     0.667
    ## # ℹ 37 more rows
…
  tibble(
    replicate = i,
    r_sq = r_sq,
    beta1_beta2 = beta1 / beta2
  )
}

set.seed(1)

boot_results <- map_dfr(1:5000, ~ boot_once(weather_df, .x))

boot_results
```

    ## # A tibble: 5,000 × 3
    ##    replicate  r_sq beta1_beta2
    ##        <int> <dbl>       <dbl>
    ##  1         1 0.941       -202.
    ##  2         2 0.940       -222.
    ##  3         3 0.944       -166.
    ##  4         4 0.941       -228.
    ##  5         5 0.944       -149.
    ##  6         6 0.938       -172.
    ##  7         7 0.943       -181.
    ##  8         8 0.942       -229.
    ##  9         9 0.938       -152.
    ## 10        10 0.940       -205.
    ## # ℹ 4,990 more rows
…
